Copyright 1986-2014 Xilinx, Inc. All Rights Reserved.
------------------------------------------------------------------------------------
| Tool Version : Vivado v.2014.4 (win64) Build 1071353 Tue Nov 18 18:29:27 MST 2014
| Date         : Wed Apr 01 15:28:35 2015
| Host         : Titow running 64-bit major release  (build 9200)
| Command      : report_drc
------------------------------------------------------------------------------------

Report DRC

Table of Contents
-----------------
1. REPORT SUMMARY
2. REPORT DETAILS

1. REPORT SUMMARY
-----------------
            Netlist: netlist
          Floorplan: design_1
      Design limits: <entire design considered>
           Ruledeck: default
           Max violations: <unlimited>
         Violations found: 7

2. REPORT DETAILS
-----------------
PLIOBUF-1#1 Error
DRC check between IO and buffer(IBUF/OBUF)  
Inputs of IBUF/BUFGP instance AXI4_groundhog_SATA_v1_0_S00_AXI_inst/hba_0/gtp_sata_i/U0/gt_usrclk_source/IBUFDS_DRP_CLK is not driven by port. This might lead to unplaceable/unroutable situation
Related violations: <none>

PLIOSTD-3#1 Error
IOSTANDARD violations  
Illegal IOStandard configured for port DRP_CLK_IN_N. I/O port DRP_CLK_IN_N is differential, but has single-ended IOStandard value LVCMOS18
Related violations: <none>

REQP-61#1 Error
ibufds_connects_I_active  
IBUFDS AXI4_groundhog_SATA_v1_0_S00_AXI_inst/hba_0/gtp_sata_i/U0/gt_usrclk_source/IBUFDS_DRP_CLK pin I has an invalid driver DRP_CLK_IN_P_BUFG_inst
Related violations: <none>

NSTD-1#1 Critical Warning
Unspecified I/O Standard  
690 out of 690 logical ports use I/O standard (IOSTANDARD) value 'DEFAULT', instead of a user assigned specific value. This may cause I/O contention or incompatibility with the board power or connectivity affecting performance, signal integrity or in extreme cases cause damage to the device or the components to which it is connected. To correct this violation, specify all I/O standards. This design will fail to generate a bitstream unless all logical ports have a user specified I/O standard value defined. To allow bitstream creation with unspecified I/O standard values (not recommended), use this command: set_property SEVERITY {Warning} [get_drc_checks NSTD-1].  NOTE: When using the Vivado Runs infrastructure (e.g. launch_runs Tcl command), add this command to a .tcl file and add that file as a pre-hook for write_bitstream step for the implementation run. Problem ports: s00_axi_awid[0:0], s00_axi_awaddr[63:0], s00_axi_awlen[7:0], s00_axi_awburst[1:0], s00_axi_bid[0:0], s00_axi_bresp[1:0], s00_axi_arid[0:0], s00_axi_araddr[63:0], s00_axi_arlen[7:0], s00_axi_arburst[1:0], s00_axi_rid[0:0], s00_axi_rdata[511:0], s00_axi_rresp[1:0], DRP_CLK_IN_N, DRP_CLK_IN_P (the first 15 of 35 listed).
Related violations: <none>

UCIO-1#1 Critical Warning
Unconstrained Logical Port  
690 out of 690 logical ports have no user assigned specific location constraint (LOC). This may cause I/O contention or incompatibility with the board power or connectivity affecting performance, signal integrity or in extreme cases cause damage to the device or the components to which it is connected. To correct this violation, specify all pin locations. This design will fail to generate a bitstream unless all logical ports have a user specified site LOC constraint defined.  To allow bitstream creation with unspecified pin locations (not recommended), use this command: set_property SEVERITY {Warning} [get_drc_checks UCIO-1].  NOTE: When using the Vivado Runs infrastructure (e.g. launch_runs Tcl command), add this command to a .tcl file and add that file as a pre-hook for write_bitstream step for the implementation run.  Problem ports: s00_axi_awid[0:0], s00_axi_awaddr[63:0], s00_axi_awlen[7:0], s00_axi_awburst[1:0], s00_axi_bid[0:0], s00_axi_bresp[1:0], s00_axi_arid[0:0], s00_axi_araddr[63:0], s00_axi_arlen[7:0], s00_axi_arburst[1:0], s00_axi_rid[0:0], s00_axi_rdata[511:0], s00_axi_rresp[1:0], DRP_CLK_IN_N, DRP_CLK_IN_P (the first 15 of 35 listed).
Related violations: <none>

CFGBVS-1#1 Warning
Missing CFGBVS and CONFIG_VOLTAGE Design Properties  
Neither the CFGBVS nor CONFIG_VOLTAGE voltage property is set in the current_design.  Configuration bank voltage select (CFGBVS) must be set to VCCO or GND, and CONFIG_VOLTAGE must be set to the correct configuration voltage, in order to determine the I/O voltage support for the pins in bank 0.  It is suggested to specify these either using the 'Edit Device Properties' function in the GUI or directly in the XDC file using the following syntax:

 set_property CFGBVS value1 [current_design]
 #where value1 is either VCCO or GND

 set_property CONFIG_VOLTAGE value2 [current_design]
 #where value2 is the voltage provided to configuration bank 0

Refer to the device configuration user guide for more information.
Related violations: <none>

IOCNT-1#1 Warning
Number of IOs  
The design contains 690 unplaced I/O ports while the target device, xc7a200tfbg676-2, has 400 remaining available user I/O pins. This DRC assumes that all ports which do not drive MGT pins should be placed on user I/O pins. To correct this issue:
1. Ensure you are targeting the correct device and package. Select a larger device or different package if necessary.
2. Check the top-level ports of the design to ensure the correct number of ports are specified.
3. Consider design changes to reduce the number of user I/O pins needed.

Related violations: <none>


