Design Route Status
                                               :      # nets :
   ------------------------------------------- : ----------- :
   # of logical nets.......................... :        3451 :
       # of nets not needing routing.......... :         938 :
           # of internally routed nets........ :         869 :
           # of nets with no loads............ :          69 :
       # of routable nets..................... :        2513 :
           # of fully routed nets............. :        2513 :
       # of nets with routing errors.......... :           0 :
   ------------------------------------------- : ----------- :

